{
    "data": [
        {
            "id": 1,
            "name": "admin",
            "email": "admin@admin.com",
            "created_at": "2018-05-16T01:41:15+00:00",
            "updated_at": "2018-05-16T01:41:15+00:00",
            "roles": {
                "data": [
                    {
                        "id": 1,
                        "name": "Administrator",
                        "created_at": "2018-05-16T01:41:15+00:00",
                        "updated_at": "2018-05-16T01:41:15+00:00",
                        "permissions": {
                            "data": [
                                {
                                    "id": 1,
                                    "name": "List users",
                                    "created_at": "2018-05-16T01:41:15+00:00",
                                    "updated_at": "2018-05-16T01:41:15+00:00"
                                },
                                {
                                    "id": 2,
                                    "name": "Create users",
                                    "created_at": "2018-05-16T01:41:15+00:00",
                                    "updated_at": "2018-05-16T01:41:15+00:00"
                                },
                                {
                                    "id": 3,
                                    "name": "Delete users",
                                    "created_at": "2018-05-16T01:41:15+00:00",
                                    "updated_at": "2018-05-16T01:41:15+00:00"
                                },
                                {
                                    "id": 4,
                                    "name": "Update users",
                                    "created_at": "2018-05-16T01:41:15+00:00",
                                    "updated_at": "2018-05-16T01:41:15+00:00"
                                },
                                {
                                    "id": 5,
                                    "name": "List roles",
                                    "created_at": "2018-05-16T01:41:15+00:00",
                                    "updated_at": "2018-05-16T01:41:15+00:00"
                                },
                                {
                                    "id": 6,
                                    "name": "Create roles",
                                    "created_at": "2018-05-16T01:41:15+00:00",
                                    "updated_at": "2018-05-16T01:41:15+00:00"
                                },
                                {
                                    "id": 7,
                                    "name": "Delete roles",
                                    "created_at": "2018-05-16T01:41:15+00:00",
                                    "updated_at": "2018-05-16T01:41:15+00:00"
                                },
                                {
                                    "id": 8,
                                    "name": "Update roles",
                                    "created_at": "2018-05-16T01:41:15+00:00",
                                    "updated_at": "2018-05-16T01:41:15+00:00"
                                },
                                {
                                    "id": 9,
                                    "name": "List permissions",
                                    "created_at": "2018-05-16T01:41:15+00:00",
                                    "updated_at": "2018-05-16T01:41:15+00:00"
                                }
                            ]
                        }
                    }
                ]
            }
        },
        {
            "id": 2,
            "name": "Germaine Ruecker",
            "email": "dharris@example.org",
            "created_at": "2018-05-16T01:41:22+00:00",
            "updated_at": "2018-05-16T01:41:22+00:00",
            "roles": {
                "data": [
                    {
                        "id": 2,
                        "name": "Guest",
                        "created_at": "2018-05-16T01:41:22+00:00",
                        "updated_at": "2018-05-16T01:41:22+00:00",
                        "permissions": {
                            "data": []
                        }
                    }
                ]
            }
        },
        {
            "id": 3,
            "name": "Ismael Buckridge PhD",
            "email": "borer.declan@example.net",
            "created_at": "2018-05-16T01:41:22+00:00",
            "updated_at": "2018-05-16T01:41:22+00:00",
            "roles": {
                "data": [
                    {
                        "id": 2,
                        "name": "Guest",
                        "created_at": "2018-05-16T01:41:22+00:00",
                        "updated_at": "2018-05-16T01:41:22+00:00",
                        "permissions": {
                            "data": []
                        }
                    }
                ]
            }
        },
        {
            "id": 4,
            "name": "Dr. Coleman Gleichner",
            "email": "mitchel71@example.net",
            "created_at": "2018-05-16T01:41:22+00:00",
            "updated_at": "2018-05-16T01:41:22+00:00",
            "roles": {
                "data": [
                    {
                        "id": 2,
                        "name": "Guest",
                        "created_at": "2018-05-16T01:41:22+00:00",
                        "updated_at": "2018-05-16T01:41:22+00:00",
                        "permissions": {
                            "data": []
                        }
                    }
                ]
            }
        },
        {
            "id": 5,
            "name": "Esther O'Connell",
            "email": "patience02@example.net",
            "created_at": "2018-05-16T01:41:22+00:00",
            "updated_at": "2018-05-16T01:41:22+00:00",
            "roles": {
                "data": [
                    {
                        "id": 2,
                        "name": "Guest",
                        "created_at": "2018-05-16T01:41:22+00:00",
                        "updated_at": "2018-05-16T01:41:22+00:00",
                        "permissions": {
                            "data": []
                        }
                    }
                ]
            }
        },
        {
            "id": 6,
            "name": "Fabiola Breitenberg",
            "email": "zkihn@example.com",
            "created_at": "2018-05-16T01:41:22+00:00",
            "updated_at": "2018-05-16T01:41:22+00:00",
            "roles": {
                "data": [
                    {
                        "id": 2,
                        "name": "Guest",
                        "created_at": "2018-05-16T01:41:22+00:00",
                        "updated_at": "2018-05-16T01:41:22+00:00",
                        "permissions": {
                            "data": []
                        }
                    }
                ]
            }
        },
        {
            "id": 7,
            "name": "Mr. Halle Altenwerth V",
            "email": "jewel43@example.org",
            "created_at": "2018-05-16T01:41:22+00:00",
            "updated_at": "2018-05-16T01:41:22+00:00",
            "roles": {
                "data": [
                    {
                        "id": 2,
                        "name": "Guest",
                        "created_at": "2018-05-16T01:41:22+00:00",
                        "updated_at": "2018-05-16T01:41:22+00:00",
                        "permissions": {
                            "data": []
                        }
                    }
                ]
            }
        },
        {
            "id": 8,
            "name": "Prof. Fausto Skiles",
            "email": "leilani90@example.net",
            "created_at": "2018-05-16T01:41:22+00:00",
            "updated_at": "2018-05-16T01:41:22+00:00",
            "roles": {
                "data": [
                    {
                        "id": 2,
                        "name": "Guest",
                        "created_at": "2018-05-16T01:41:22+00:00",
                        "updated_at": "2018-05-16T01:41:22+00:00",
                        "permissions": {
                            "data": []
                        }
                    }
                ]
            }
        },
        {
            "id": 9,
            "name": "Will Leffler",
            "email": "fausto.jerde@example.org",
            "created_at": "2018-05-16T01:41:22+00:00",
            "updated_at": "2018-05-16T01:41:22+00:00",
            "roles": {
                "data": [
                    {
                        "id": 2,
                        "name": "Guest",
                        "created_at": "2018-05-16T01:41:22+00:00",
                        "updated_at": "2018-05-16T01:41:22+00:00",
                        "permissions": {
                            "data": []
                        }
                    }
                ]
            }
        },
        {
            "id": 10,
            "name": "Nestor Cassin V",
            "email": "little.dayana@example.org",
            "created_at": "2018-05-16T01:41:22+00:00",
            "updated_at": "2018-05-16T01:41:22+00:00",
            "roles": {
                "data": [
                    {
                        "id": 2,
                        "name": "Guest",
                        "created_at": "2018-05-16T01:41:22+00:00",
                        "updated_at": "2018-05-16T01:41:22+00:00",
                        "permissions": {
                            "data": []
                        }
                    }
                ]
            }
        },
        {
            "id": 11,
            "name": "Natasha Medhurst",
            "email": "lexi.kirlin@example.com",
            "created_at": "2018-05-16T01:41:22+00:00",
            "updated_at": "2018-05-16T01:41:22+00:00",
            "roles": {
                "data": [
                    {
                        "id": 2,
                        "name": "Guest",
                        "created_at": "2018-05-16T01:41:22+00:00",
                        "updated_at": "2018-05-16T01:41:22+00:00",
                        "permissions": {
                            "data": []
                        }
                    }
                ]
            }
        },
        {
            "id": 12,
            "name": "Justen Haley",
            "email": "keeley.stehr@example.com",
            "created_at": "2018-05-16T01:41:22+00:00",
            "updated_at": "2018-05-16T01:41:22+00:00",
            "roles": {
                "data": [
                    {
                        "id": 2,
                        "name": "Guest",
                        "created_at": "2018-05-16T01:41:22+00:00",
                        "updated_at": "2018-05-16T01:41:22+00:00",
                        "permissions": {
                            "data": []
                        }
                    }
                ]
            }
        },
        {
            "id": 13,
            "name": "Barry Muller",
            "email": "hoppe.marielle@example.org",
            "created_at": "2018-05-16T01:41:22+00:00",
            "updated_at": "2018-05-16T01:41:22+00:00",
            "roles": {
                "data": [
                    {
                        "id": 2,
                        "name": "Guest",
                        "created_at": "2018-05-16T01:41:22+00:00",
                        "updated_at": "2018-05-16T01:41:22+00:00",
                        "permissions": {
                            "data": []
                        }
                    }
                ]
            }
        },
        {
            "id": 14,
            "name": "Miss Twila Botsford Jr.",
            "email": "rokuneva@example.org",
            "created_at": "2018-05-16T01:41:22+00:00",
            "updated_at": "2018-05-16T01:41:22+00:00",
            "roles": {
                "data": [
                    {
                        "id": 2,
                        "name": "Guest",
                        "created_at": "2018-05-16T01:41:22+00:00",
                        "updated_at": "2018-05-16T01:41:22+00:00",
                        "permissions": {
                            "data": []
                        }
                    }
                ]
            }
        },
        {
            "id": 15,
            "name": "Granville Robel",
            "email": "allene09@example.com",
            "created_at": "2018-05-16T01:41:22+00:00",
            "updated_at": "2018-05-16T01:41:22+00:00",
            "roles": {
                "data": [
                    {
                        "id": 2,
                        "name": "Guest",
                        "created_at": "2018-05-16T01:41:22+00:00",
                        "updated_at": "2018-05-16T01:41:22+00:00",
                        "permissions": {
                            "data": []
                        }
                    }
                ]
            }
        },
        {
            "id": 16,
            "name": "Deborah Murphy",
            "email": "price.vance@example.net",
            "created_at": "2018-05-16T01:41:22+00:00",
            "updated_at": "2018-05-16T01:41:22+00:00",
            "roles": {
                "data": [
                    {
                        "id": 2,
                        "name": "Guest",
                        "created_at": "2018-05-16T01:41:22+00:00",
                        "updated_at": "2018-05-16T01:41:22+00:00",
                        "permissions": {
                            "data": []
                        }
                    }
                ]
            }
        },
        {
            "id": 17,
            "name": "Miss Rozella Reichel",
            "email": "jaden80@example.net",
            "created_at": "2018-05-16T01:41:22+00:00",
            "updated_at": "2018-05-16T01:41:22+00:00",
            "roles": {
                "data": [
                    {
                        "id": 2,
                        "name": "Guest",
                        "created_at": "2018-05-16T01:41:22+00:00",
                        "updated_at": "2018-05-16T01:41:22+00:00",
                        "permissions": {
                            "data": []
                        }
                    }
                ]
            }
        },
        {
            "id": 18,
            "name": "Heather Weimann DVM",
            "email": "kkuhn@example.com",
            "created_at": "2018-05-16T01:41:22+00:00",
            "updated_at": "2018-05-16T01:41:22+00:00",
            "roles": {
                "data": [
                    {
                        "id": 2,
                        "name": "Guest",
                        "created_at": "2018-05-16T01:41:22+00:00",
                        "updated_at": "2018-05-16T01:41:22+00:00",
                        "permissions": {
                            "data": []
                        }
                    }
                ]
            }
        },
        {
            "id": 19,
            "name": "Ismael Klocko",
            "email": "brakus.ariane@example.org",
            "created_at": "2018-05-16T01:41:22+00:00",
            "updated_at": "2018-05-16T01:41:22+00:00",
            "roles": {
                "data": [
                    {
                        "id": 2,
                        "name": "Guest",
                        "created_at": "2018-05-16T01:41:22+00:00",
                        "updated_at": "2018-05-16T01:41:22+00:00",
                        "permissions": {
                            "data": []
                        }
                    }
                ]
            }
        },
        {
            "id": 20,
            "name": "Shanel Marvin",
            "email": "fosinski@example.net",
            "created_at": "2018-05-16T01:41:22+00:00",
            "updated_at": "2018-05-16T01:41:22+00:00",
            "roles": {
                "data": [
                    {
                        "id": 2,
                        "name": "Guest",
                        "created_at": "2018-05-16T01:41:22+00:00",
                        "updated_at": "2018-05-16T01:41:22+00:00",
                        "permissions": {
                            "data": []
                        }
                    }
                ]
            }
        }
    ],
    "meta": {
        "pagination": {
            "total": 103,
            "count": 20,
            "per_page": 20,
            "current_page": 1,
            "total_pages": 6,
            "links": {
                "next": "http://mock-api.aniqma.io/tjsl/v1/users?page=2"
            }
        }
    }
}